{
  "realm": "dating",
  "auth-server-url": "https://sso.v205.usaautoexport.am/auth",
  "ssl-required": "external",
  "resource": "erp-local-client",
  "public-client": true,
  "confidential-port": 0
}